{
  com.badlogic.gdx.graphics.Color: {
    black: { r: 0, g: 0, b: 0, a: 1 },
    white: { r: 1, g: 1, b: 1, a: 1 },
    grey: { r: 0.32, g: 0.32, b: 0.32, a: 1 },
  },
  com.badlogic.gdx.graphics.g2d.BitmapFont: {
    font-default: {
      file: carter.fnt,
    },
  },
  com.badlogic.gdx.scenes.scene2d.ui.Skin$TintedDrawable: {
    cursor: {
      name: white,
      color: { r: 0.76, g: 0.76, b: 0.74, a: 1 },
    },
    selection: {
      name: white,
      color: { r: 0.16, g: 0.37, b: 0.47, a: 1 },
    },
    own: {
      name: white,
      color: { r: 0.04, g: 0.5, b: 0.88, a: 1 },
    },
    other: {
      name: white,
      color: { r: 0.59, g: 0.06, b: 0.03, a: 1 },
    },
  },
  com.badlogic.gdx.scenes.scene2d.ui.Label$LabelStyle: {
    default: {
      font: font-default,
      fontColor: white,
    },
    title: {
      font: font-default,
      fontColor: white,
      background: title,
    },
    tooltip: {
      font: font-default,
      fontColor: white,
      background: tooltip,
    },
    rank_background_pos: {
      font: font-default,
      fontColor: white,
      background: rank_background_pos,
    },
    rank_background_name: {
      font: font-default,
      fontColor: white,
      background: rank_background_name,
    },
  },
  com.badlogic.gdx.scenes.scene2d.ui.TextButton$TextButtonStyle: {
    default: {
      font: font-default,
      fontColor: white,
      disabledFontColor: white,
      up: button-yellow,
      down: button-yellow-down,
      over: button-yellow-over,
      disabled: button-grey,
    },
    plain-text: {
      font: font-default,
      fontColor: white,
      disabledFontColor: white,
      up: title,
      down: title,
      over: title,
      disabled: title,
    },
  },
  com.badlogic.gdx.scenes.scene2d.ui.ImageButton$ImageButtonStyle: {
    default: {
      up: button-round,
      down: button-round-down,
      over: button-round-over,
      disabled: button-round-disabled,
    },
    player-round: {
      imageUp: icon_user,
      up: button-round,
      down: button-round-down,
      over: button-round-over,
      disabled: button-round-disabled,
    },
    settings-round: {
      imageUp: icon_settings,
      up: button-round,
      down: button-round-down,
      over: button-round-over,
      disabled: button-round-disabled,
    },
    close: {
      up: close-button,
      down: close-button-down,
      over: close-button-over,
    }
  },
  com.badlogic.gdx.scenes.scene2d.ui.TextField$TextFieldStyle: {
    default: {
      font: font-default,
      fontColor: white,
      disabledFontColor: grey,
      background: textfield,
      cursor: cursor,
      selection: selection,
    },
    blue: {
      font: font-default,
      fontColor: white,
      disabledFontColor: white,
      background: tooltip,
      cursor: cursor,
      selection: selection,
    },
  },
  com.badlogic.gdx.scenes.scene2d.ui.ScrollPane$ScrollPaneStyle: {
    default: {
      hScroll: scroll-horizontal,
      hScrollKnob: scroll-horizontal-knob,
      vScroll: scroll-vertical,
      vScrollKnob: scroll-vertical-knob,
    },
  },
  com.badlogic.gdx.scenes.scene2d.ui.List$ListStyle: {
    default: {
      font: font-default,
      fontColorUnselected: white,
      fontColorSelected: black,
      selection: selection,
    },
  },
  com.badlogic.gdx.scenes.scene2d.ui.Slider$SliderStyle: {
    default-horizontal: {
      background: slider,
      knob: slider-knob,
      knobOver: slider-knob-over,
      disabledKnob: slider-knob-disabled,
    },
  },
  com.badlogic.gdx.scenes.scene2d.ui.Window$WindowStyle: {
    default: {
      background: panel,
      titleFont: font-default,
      titleFontColor: black,
    }
  }
  com.peritasoft.flickkarts.ui.LobbyPlayerList$LobbyPlayerListStyle: {
    default: {
      font: font-default,
      fontColor: white,
      backgroundOther: other,
      backgroundOwn: own,
      versus: vs,
    }
  }
}